[gd_scene load_steps=2 format=2]

[ext_resource path="res://assets/misc/FrostWave.png" type="Texture" id=1]

[node name="FrostWave" type="Node2D"]

[node name="FrostWave" type="Sprite" parent="."]
modulate = Color( 0.505882, 0.941176, 1, 0.196078 )
position = Vector2( 248.538, 240.391 )
scale = Vector2( 1, 2 )
z_index = 9
z_as_relative = false
texture = ExtResource( 1 )
