[gd_scene load_steps=3 format=2]

[ext_resource path="res://scenes/Ark.tscn" type="PackedScene" id=2]
[ext_resource path="res://scripts/Main.gd" type="Script" id=3]

[node name="Main" type="Node2D"]
script = ExtResource( 3 )

[node name="Arch" parent="." instance=ExtResource( 2 )]

[node name="Camera2D" type="Camera2D" parent="."]
position = Vector2( 250, 360 )
current = true

[connection signal="dead" from="Arch" to="." method="_on_Arch_dead"]
[connection signal="engine_broken" from="Arch" to="." method="_on_Arch_engine_broken"]
[connection signal="engine_repaired" from="Arch" to="." method="_on_Arch_engine_repaired"]
