[gd_scene load_steps=4 format=2]

[ext_resource path="res://assets/HUD/SOUND ON.png" type="Texture" id=1]
[ext_resource path="res://assets/HUD/NO SOUND.png" type="Texture" id=2]
[ext_resource path="res://scripts/SoundControl.gd" type="Script" id=3]

[node name="SoundControl" type="Node2D"]
script = ExtResource( 3 )

[node name="Control" type="Control" parent="."]
margin_right = 40.0
margin_bottom = 40.0
__meta__ = {
"_edit_use_anchors_": false
}

[node name="On" type="Sprite" parent="."]
visible = false
position = Vector2( 19, 14 )
texture = ExtResource( 1 )

[node name="Off" type="Sprite" parent="."]
visible = false
position = Vector2( 19, 14 )
texture = ExtResource( 2 )

[connection signal="gui_input" from="Control" to="." method="_on_Control_gui_input"]
